2018-04-26 15:05:03,041 - insert_foot_pageid_count_v2 - ERROR - 19921 - error while cursor(): (1064, "You have an error in your SQL syntax; check the manual that corresponds to your MariaDB server version for the right syntax to use near '-0415' at line 1")
/root/anaconda3/envs/my_env/lib/python3.6/site-packages/pymysql/cursors.py:322: Warning: (1051, "Unknown table 'breaktime.pageid2foot_0301_0415'")
  self._do_get_result()
Traceback (most recent call last):
  File "./insert_ads_uqpageid_v2.py", line 198, in <module>
    for eachtitle in eachDic[eachpageid][eachkw]['title'].keys():
KeyError: 'title'
Traceback (most recent call last):
  File "./insert_ads_uqpageid_v2.py", line 204, in <module>
    if eachtitle in finalDic[eachpageid][eachkw]['title']:
KeyError: 'title'
/root/anaconda3/envs/my_env/lib/python3.6/site-packages/pymysql/cursors.py:322: Warning: (1051, "Unknown table 'breaktime.pageid2foot_0101_0415'")
  self._do_get_result()
Process ForkPoolWorker-1:
Traceback (most recent call last):
  File "/root/anaconda3/envs/my_env/lib/python3.6/multiprocessing/process.py", line 258, in _bootstrap
    self.run()
  File "/root/anaconda3/envs/my_env/lib/python3.6/multiprocessing/process.py", line 93, in run
    self._target(*self._args, **self._kwargs)
  File "/root/anaconda3/envs/my_env/lib/python3.6/multiprocessing/pool.py", line 108, in worker
    task = get()
  File "/root/anaconda3/envs/my_env/lib/python3.6/multiprocessing/queues.py", line 335, in get
    res = self._reader.recv_bytes()
  File "/root/anaconda3/envs/my_env/lib/python3.6/multiprocessing/connection.py", line 216, in recv_bytes
    buf = self._recv_bytes(maxlength)
  File "/root/anaconda3/envs/my_env/lib/python3.6/multiprocessing/connection.py", line 407, in _recv_bytes
    buf = self._recv(4)
  File "/root/anaconda3/envs/my_env/lib/python3.6/multiprocessing/connection.py", line 379, in _recv
    chunk = read(handle, remaining)
KeyboardInterrupt
Process ForkPoolWorker-4:
Process ForkPoolWorker-3:
Traceback (most recent call last):
  File "./insert_ads_uqpageid_v2.py", line 186, in <module>
    res = pool.map(worker, range(numprocess))
  File "/root/anaconda3/envs/my_env/lib/python3.6/multiprocessing/pool.py", line 266, in map
    return self._map_async(func, iterable, mapstar, chunksize).get()
  File "/root/anaconda3/envs/my_env/lib/python3.6/multiprocessing/pool.py", line 638, in get
    self.wait(timeout)
  File "/root/anaconda3/envs/my_env/lib/python3.6/multiprocessing/pool.py", line 635, in wait
    self._event.wait(timeout)
  File "/root/anaconda3/envs/my_env/lib/python3.6/threading.py", line 551, in wait
    signaled = self._cond.wait(timeout)
  File "/root/anaconda3/envs/my_env/lib/python3.6/threading.py", line 295, in wait
    waiter.acquire()
KeyboardInterrupt

During handling of the above exception, another exception occurred:

Traceback (most recent call last):
  File "./insert_ads_uqpageid_v2.py", line 186, in <module>
    res = pool.map(worker, range(numprocess))
  File "/root/anaconda3/envs/my_env/lib/python3.6/multiprocessing/pool.py", line 611, in __exit__
    self.terminate()
  File "/root/anaconda3/envs/my_env/lib/python3.6/multiprocessing/pool.py", line 541, in terminate
    self._terminate()
  File "/root/anaconda3/envs/my_env/lib/python3.6/multiprocessing/util.py", line 186, in __call__
    res = self._callback(*self._args, **self._kwargs)
  File "/root/anaconda3/envs/my_env/lib/python3.6/multiprocessing/pool.py", line 571, in _terminate_pool
    cls._help_stuff_finish(inqueue, task_handler, len(pool))
  File "/root/anaconda3/envs/my_env/lib/python3.6/multiprocessing/pool.py", line 556, in _help_stuff_finish
    inqueue._rlock.acquire()
KeyboardInterrupt
2018-04-27 08:52:19,146 - insert_ads_uqpageid_v2 - ERROR - 21340 - error while cursor(): 'title'
2018-04-27 09:02:59,510 - insert_ads_uqpageid_v2 - ERROR - 21395 - error while cursor(): 'title'
2018-04-27 09:32:32,988 - insert_ads_uqpageid_v2 - ERROR - 21415 - error while cursor(): 'title'
Traceback (most recent call last):
  File "./insert_ads_uqpageid_v2.py", line 204, in <module>
    if eachtitle in finalDic[eachpageid][eachkw]['title']:
KeyError: 'title'
/root/anaconda3/envs/my_env/lib/python3.6/site-packages/pymysql/cursors.py:322: Warning: (1051, "Unknown table 'breaktime.ads_pageidAndKw_201803'")
  self._do_get_result()
